{
  "recorded_at": "2021-07-13T11:10:35.847Z",
  "uuid": "00000000-0000-0000-0000-000000000000",
  "hostname": "gdk.test",
  "active_user_count": 98,
  "license_md5": "b2da2506bb50466fbbe9954ddcabbaa3",
  "license_id": 106597,
  "historical_max_users": 57,
  "licensee": {
    "Name": "Jane Doe",
    "Email": "jdoe@gitlab.com",
    "Company": "GitLab"
  },
  "license_user_count": 10,
  "license_starts_at": "2019-10-25",
  "license_expires_at": null,
  "license_plan": "ultimate",
  "license_add_ons": {
  },
  "license_trial": false,
  "license_subscription_id": "",
  "license": {
  },
  "settings": {
    "collected_data_categories": [
      "Standard",
      "Subscription",
      "Operational"
    ]
  },
  "counts": {
    "ci_builds": 859,
    "ci_internal_pipelines": 97,
    "ci_external_pipelines": 0,
    "clusters_applications_cilium": 0,
    "issues": 531,
    "projects": 24,
    "projects_imported_from_github": 0,
    "projects_with_repositories_enabled": 24,
    "projects_with_terraform_reports": 0,
    "projects_with_terraform_states": 0,
    "protected_branches": 29,
    "remote_mirrors": 0,
    "todos": 475,
    "merge_requests": 100,
    "projects_bamboo_active": 0,
    "projects_drone_ci_active": 0,
    "projects_github_active": 0,
    "projects_jenkins_active": 0,
    "projects_jira_active": 0,
    "projects_jira_server_active": 0,
    "projects_jira_cloud_active": 0,
    "projects_jira_dvcs_cloud_active": 0,
    "projects_jira_dvcs_server_active": 0,
    "kubernetes_agent_gitops_sync": 0,
    "network_policy_forwards": 0,
    "network_policy_drops": 0,
    "user_preferences_group_overview_security_dashboard": 0,
    "service_desk_issues": 0,
    "epics": 40,
    "container_scanning_jobs": 2,
    "dast_jobs": 0,
    "dependency_scanning_jobs": 0,
    "license_management_jobs": 2,
    "sast_jobs": 0,
    "secret_detection_jobs": 0
  },
  "counts_monthly": {
    "deployments": 0,
    "aggregated_metrics": {
    }
  },
  "counts_weekly": {
    "aggregated_metrics": {
    }
  },
  "license_trial_ends_on": null,
  "git": {
    "version": {
      "major": 2,
      "minor": 31,
      "patch": 1
    }
  },
  "gitaly": {
    "version": "14.0.0-rc1-12-g8fd337f0f",
    "servers": 1,
    "clusters": 0
  },
  "gitlab_pages": {
  },
  "container_registry_server": {
  },
  "database": {
  },
  "mail": {
  },
  "object_store": {
    "artifacts": {
      "object_store": {
      }
    },
    "external_diffs": {
      "object_store": {
      }
    },
    "lfs": {
      "object_store": {
      }
    },
    "uploads": {
      "object_store": {
      }
    },
    "packages": {
      "object_store": {
      }
    }
  },
  "topology": {
  },
  "usage_activity_by_stage": {
    "configure": {
    },
    "create": {
    },
    "enablement": {
    },
    "manage": {
      "user_auth_by_provider": {
      },
      "bulk_imports": {
      },
      "project_imports": {
      },
      "issue_imports": {
        "jira": 0
      },
      "group_imports": {
      },
      "projects_imported": {
      },
      "issues_imported": {
      }
    },
    "monitor": {
      "projects_with_enabled_alert_integrations_histogram": {
      }
    },
    "package": {
    },
    "plan": {
      "issues": 21,
      "epics": 13
    },
    "release": {
    },
    "secure": {
      "user_preferences_group_overview_security_dashboard": 0,
      "user_container_scanning_jobs": 1,
      "user_dast_jobs": 0,
      "user_dependency_scanning_jobs": 0,
      "user_license_management_jobs": 1,
      "user_sast_jobs": 0,
      "user_secret_detection_jobs": 0,
      "user_coverage_fuzzing_jobs": 0,
      "user_api_fuzzing_jobs": 0,
      "user_api_fuzzing_dnd_jobs": 0,
      "sast_scans": 12,
      "dependency_scanning_scans": 0,
      "container_scanning_scans": 0,
      "dast_scans": 0,
      "secret_detection_scans": 0,
      "coverage_fuzzing_scans": 0,
      "api_fuzzing_scans": 0,
      "user_unique_users_all_secure_scanners": 1
    },
    "verify": {
    }
  },
  "usage_activity_by_stage_monthly": {
    "configure": {
      "project_clusters_enabled": 0
    },
    "create": {
      "projects_enforcing_code_owner_approval": 0
    },
    "enablement": {
    },
    "manage": {
      "user_auth_by_provider": {
      },
      "bulk_imports": {
      },
      "project_imports": {
      },
      "issue_imports": {
      },
      "group_imports": {
      },
      "projects_imported": {
      },
      "issues_imported": {
      }
    },
    "monitor": {
    },
    "package": {
    },
    "plan": {
      "service_desk_issues": 0,
      "projects_jira_active": 0,
      "projects_jira_dvcs_cloud_active": 0,
      "projects_jira_dvcs_server_active": 0
    },
    "release": {
    },
    "secure": {
      "user_preferences_group_overview_security_dashboard": 0,
      "user_container_scanning_jobs": 0,
      "user_dast_jobs": 0,
      "user_dependency_scanning_jobs": 0,
      "user_license_management_jobs": 0,
      "user_sast_jobs": 0,
      "user_secret_detection_jobs": 0,
      "user_coverage_fuzzing_jobs": 0,
      "user_api_fuzzing_jobs": 0,
      "user_api_fuzzing_dnd_jobs": 0,
      "sast_pipeline": 0,
      "dependency_scanning_pipeline": 0,
      "container_scanning_pipeline": 0,
      "dast_pipeline": 0,
      "secret_detection_pipeline": 0,
      "coverage_fuzzing_pipeline": 0,
      "api_fuzzing_pipeline": 0,
      "sast_scans": 0,
      "dependency_scanning_scans": 0,
      "container_scanning_scans": 0,
      "dast_scans": 0,
      "secret_detection_scans": 0,
      "coverage_fuzzing_scans": 0,
      "api_fuzzing_scans": 0,
      "user_unique_users_all_secure_scanners": 0
    },
    "verify": {
    }
  },
  "analytics_unique_visits": {
  },
  "compliance_unique_visits": {
  },
  "search_unique_visits": {
  },
  "redis_hll_counters": {
    "compliance": {
    },
    "ide_edit": {
    },
    "search": {
    },
    "source_code": {
    },
    "incident_management": {
      "incident_management_total_unique_counts_monthly": 0
    },
    "incident_management_alerts": {
    },
    "incident_management_oncall": {
    },
    "testing": {
    },
    "issues_edit": {
      "g_project_management_issue_created_monthly": 0,
      "g_project_management_issue_closed_monthly": 0,
      "issues_edit_total_unique_counts_monthly": 0
    },
    "ci_secrets_management": {
    },
    "snippets": {
    },
    "terraform": {
      "p_terraform_state_api_unique_users_monthly": 0
    },
    "pipeline_authoring": {
    },
    "secure": {
    },
    "network_policies": {
      "clusters_using_network_policies_ui_weekly": 0,
      "clusters_using_network_policies_ui_monthly": 0
    },
    "epic_boards_usage": {
    },
    "epics_usage": {
      "g_project_management_epic_created_monthly": 0,
      "epics_usage_total_unique_counts_monthly": 0
    },
    "code_review": {
    },
    "ci_templates": {
    },
    "quickactions": {
    },
    "deploy_token_packages": {
    },
    "user_packages": {
      "user_packages_total_unique_counts_monthly": 0
    },
    "ecosystem": {
    },
    "analytics": {
      "analytics_total_unique_counts_monthly": 0
    }
  },
  "recording_ce_finished_at": "2021-07-13T11:10:54.549Z",
  "recording_ee_finished_at": "2021-07-13T11:10:54.549Z"
}
